{
  "type": "list-ambulance-position",
  "content": [
    {
      "hospital_code": "SMME",
      "latitude": 3.5837947474580423,
      "longitude": 98.67451761896332,
      "ambulances": [
        {
          "code": "SMME-001",
          "latitude": 3.57383258559876,
          "longitude": 98.68871167947943,
          "from": "Rumah Sakit",
          "to": "Jalan Kasuari No 77 Medan",
          "position_status": {
            "label": "Leaving For Base Hospital",
            "color": "#FFC300"
          },
          "lastUpdate": "2022-06-12 13:40"
        },
        {
          "code": "SMME-002",
          "latitude": 3.575344795114949,
          "longitude": 98.67235023372793,
          "position_status": {
            "label": "Leaving For Scene",
            "color": "#F4A4A4"
          },
          "lastUpdate": "2022-06-12 13:45"
        }
      ]
    },
    {
      "hospital_code": "SMCB",
      "latitude": -6.480499970541317,
      "longitude": 106.8656114728188,
      "ambulances": [
        {
          "code": "SMCB-001",
          "latitude": -6.489584214428302,
          "longitude": 106.88133762895717,
          "from": "Rumah Sakit",
          "to": "Jalan Kasuari No 77 Medan",
          "position_status": {
            "label": "Leaving For Base Hospital",
            "color": "#FFC300"
          },
          "lastUpdate": "2022-06-12 13:40"
        },
        {
          "code": "SMCB-002",
          "latitude": -6.464877335354379,
          "longitude": 106.83692116261312,
          "from": "Rumah Sakit",
          "to": "Jalan Kasuari No 77 Medan",
          "position_status": {
            "label": "Leaving For Scene",
            "color": "#F4A4A4"
          },
          "lastUpdate": "2022-06-12 13:45"
        }
      ]
    }
  ]
}
