@startjson "emergency-button-registration-request"
{
    "type": "emergency-button-registration",
    "content":{
        "fullname": "John Doe",
        "phone-1": "555-5680",
        "phone-2": "+69555-5680",
        "ktp_number":"1277121111930001",
        "mr_number":"abc-123-90",
        "static_address": "Jalan Pangeran  Diponegoro No 33 Jakarta Pusat",
        "device_type": "app"
    }

}
@endjson

@startjson "emergency-button-registration-response-success"
{
    "type": "ack",
     "content":
    {
        "success":true,
        "caller_verification_code":"x3da4gafialnadfa"
    }
}
@endjson

@startjson "emergency-button-registration-response-fail"
{
    "type":"nack",
    "content":
    {
        "success":false,
        "error_message":"Phone already registered",
        "http_status": "409 Conflict"
    }
    
}
@endjson
