@startuml
skinparam defaultTextAlignment center
skinparam linetype ortho
skinparam horizontalAlignment center

!include <tupadr3/common>

!define ICONURL https://raw.githubusercontent.com/Roemer/plantuml-office/master/office2014
!include <office/Servers/database_server>
!include <office/Servers/application_server>
!include <office/Servers/trusted_application_server>

!include <office/Concepts/application_android>
!include <office/Concepts/application_web>
!include <office/Concepts/application_generic>
!include <office/Users/writer>
!include <office/Users/tenant_admin>
!include <office/Users/mobile_user>
!include <office/Users/conferencing_attendant>
!include <office/Users/csv_file>
!include <office/Users/administrator>
!include <office/Users/users>
SkinParam {
  NodeSep 400 ' horizontal spacing
  RankSep 45 ' vertical spacing
}


rectangle "EARS" {

  frame "Users" as users{
    OFF_USERS(common_user, "By Stander", Rectangle, purple)
    OFF_WRITER(user_triage_nurse,"Triage Nurse")
    OFF_TENANT_ADMIN(ambulance_nurse,"Ambulance Nurse")
    OFF_MOBILE_USER(ambulance_driver, "Ambulance Driver")
    OFF_CONFERENCING_ATTENDANT(callcenter_operator, "Call center Operator")
    OFF_CSV_FILE(executive_user, "Hospital Executives")
    OFF_ADMINISTRATOR(admin_user, "Administrator")

  }


  frame "Applications" as applications {

    OFF_APPLICATION_WEB(callcenter,"Dispatch Management", Rectangle, blue)
    OFF_APPLICATION_WEB(portal,"Portal", Rectangle, blue)
    OFF_APPLICATION_WEB(er_room,"ER Room Monitor", Rectangle, blue)


    OFF_APPLICATION_ANDROID(ambulance_driver_app, "Ambulance Driver", Rectangle, green)
    OFF_APPLICATION_ANDROID(prehospital_care_app, "Pre Hospital Care", Rectangle, green)
    OFF_APPLICATION_ANDROID(emergency_button2, "Android Emergency App", Rectangle, green)

    OFF_APPLICATION_GENERIC(emergency_button, "Emergency Button\nController", Rectangle, red)
    OFF_APPLICATION_GENERIC(emergency_room_rotary_lamp, "Emergency Room \nRotary Lamp Controller", Rectangle, red)
    OFF_APPLICATION_GENERIC(pabx_service, "PABX Controller", Rectangle, red)
    OFF_APPLICATION_GENERIC(vitalsign_service, "Vital Sign Controller", Rectangle, red)
    OFF_APPLICATION_GENERIC(gps_service, "GPS Device Controller", Rectangle, red)
  }

  frame "Server" as server {

    OFF_APPLICATION_SERVER(restfulApi_server, "Restful Api Service", Rectangle, red)
    OFF_APPLICATION_SERVER(web_server, "Web Portal Service", Rectangle, blue)
    OFF_APPLICATION_SERVER(websocket_server, "Websocket / \nNotification Service", Rectangle, orange)
    OFF_TRUSTED_APPLICATION_SERVER(sso_server, "SSO Service", Rectangle, green)
    OFF_APPLICATION_SERVER(videoconf_server, "Video Conference",Rectangle, brown)
    OFF_DATABASE_SERVER(dbserver, "Database")

  }
  users ----> applications
  applications -----> server

}
@enduml