@startuml  "system-feature-ambulance-position"

skinparam defaultTextAlignment center
skinparam linetype ortho
skinparam horizontalAlignment center

!include <tupadr3/common>


!include <office/Servers/database_server>
!include <office/Servers/application_server>
!include <office/Servers/trusted_application_server>

!include <office/Concepts/application_android>
!include <office/Concepts/application_web>
!include <office/Concepts/application_generic>
!include <office/Users/writer>
!include <office/Users/tenant_admin>
!include <office/Users/mobile_user>
!include <office/Users/conferencing_attendant>
!include <office/Users/csv_file>
!include <office/Users/administrator>
!include <office/Users/users>
SkinParam {
    NodeSep 400 ' horizontal spacing
    RankSep 45 ' vertical spacing
}

rectangle {

    OFF_MOBILE_USER(ambulance_driver, "Ambulance Driver")
    OFF_APPLICATION_ANDROID(ambulance_driver_app, "Ambulance Driver", Rectangle, green)

    OFF_APPLICATION_SERVER(websocket_server, "Websocket / \nNotification Service", Rectangle, orange)
    OFF_APPLICATION_WEB(callcenter,"Dispatch Management", Rectangle, blue)
    OFF_CONFERENCING_ATTENDANT(callcenter_operator, "Call center Operator")
    OFF_APPLICATION_WEB(er_room,"ER Room Monitor", Rectangle, blue)
    OFF_WRITER(user_triage_nurse,"Triage Nurse")

    OFF_DATABASE_SERVER(dbserver, "Database")

    OFF_APPLICATION_SERVER(restfulApi_server, "Restful Api Service", Rectangle, red)

    ambulance_driver ..> ambulance_driver_app : set Status (e.g Leaves to scene)
    ambulance_driver_app --> websocket_server
    websocket_server --> callcenter
    callcenter --> callcenter_operator
    websocket_server --> er_room
    er_room -- user_triage_nurse
    websocket_server -->  restfulApi_server : Post
    dbserver -- restfulApi_server

}
@enduml