@startuml "Prehospital Care"

map Prehospital.Login {

}


map Prehospital.Dashboard {
 Description => App Dashboard
 Feature => Display Active Case, \nDisplay Ambulance Crew.
}

map Prehospital.ActiveCase {
 Description => Display Active cases and update
 Feature => General Info, Main Complaint ,\n
 Formerly Disesase History, Vital Sign, Clinical Finding\n
 Treatement / Actions, Remark , Close case.
}

map Prehospital.DailyCheckList {

}

Prehospital.Login --> Prehospital.Dashboard #DarkGoldenRod
Prehospital.Dashboard --> Prehospital.ActiveCase #DarkGoldenRod
Prehospital.ActiveCase --> Prehospital.DailyCheckList #DarkGoldenRod

@enduml